…
Inspect the coordinate (coordinates are tables too), then slice in its
order:

```r
dbGetQuery(con, "ds.latitude.isel(latitude=slice(0, 5))")
#>   latitude
#> 1     90.0
#> 2     89.75
#> ...

dbGetQuery(con,
  "ds['100m_u_component_of_wind'].sel(latitude=slice(19, 18), longitude=slice(73, 74), time='1980-01-01')")
# # A tibble: 600 × 4
# time                latitude longitude `100m_u_component_of_wind`
# <dttm>                 <dbl>     <dbl>                      <dbl>
# 1  1980-01-01 00:00:00    19        73                     -0.55761 
# 2  1980-01-01 00:00:00    19        73.25                  -0.21255 
# 3  1980-01-01 00:00:00    19        73.5                    0.80380 
# 4  1980-01-01 00:00:00    19        73.75                   2.3964  
# 5  1980-01-01 00:00:00    19        74                      3.7569  
# 6  1980-01-01 00:00:00    18.75     73                     -0.28515 
# 7  1980-01-01 00:00:00    18.75     73.25                  -0.035991
# 8  1980-01-01 00:00:00    18.75     73.5                    1.0485  
# 9  1980-01-01 00:00:00    18.75     73.75                   2.7908  
# 10 1980-01-01 00:00:00    18.75     74                      3.9434  
# # ℹ 590 more rows
# # ℹ Use `print(n = ...)` to see more rows
```
…
